<?xml version="1.0" encoding="UTF-8" standalone="no"?>
<!-- Created with Inkscape (http://www.inkscape.org/) -->

<svg
   xmlns:dc="http://purl.org/dc/elements/1.1/"
   xmlns:cc="http://creativecommons.org/ns#"
   xmlns:rdf="http://www.w3.org/1999/02/22-rdf-syntax-ns#"
   xmlns:svg="http://www.w3.org/2000/svg"
   xmlns="http://www.w3.org/2000/svg"
   xmlns:sodipodi="http://sodipodi.sourceforge.net/DTD/sodipodi-0.dtd"
   xmlns:inkscape="http://www.inkscape.org/namespaces/inkscape"
   width="210mm"
   height="297mm"
   viewBox="0 0 210 297"
   version="1.1"
   id="svg8"
   inkscape:version="0.92.4 5da689c313, 2019-01-14"
   sodipodi:docname="eye1.svg">
  <defs
     id="defs2" />
  <sodipodi:namedview
     id="base"
     pagecolor="#ffffff"
     bordercolor="#666666"
     borderopacity="1.0"
     inkscape:pageopacity="0.0"
     inkscape:pageshadow="2"
     inkscape:zoom="0.98994949"
     inkscape:cx="166.8272"
     inkscape:cy="684.19264"
     inkscape:document-units="mm"
     inkscape:current-layer="layer1"
     showgrid="false"
     inkscape:window-width="1887"
     inkscape:window-height="1054"
     inkscape:window-x="33"
     inkscape:window-y="0"
     inkscape:window-maximized="1"
     inkscape:snap-global="false" />
  <metadata
     id="metadata5">
    <rdf:RDF>
      <cc:Work
         rdf:about="">
        <dc:format>image/svg+xml</dc:format>
        <dc:type
           rdf:resource="http://purl.org/dc/dcmitype/StillImage" />
        <dc:title></dc:title>
      </cc:Work>
    </rdf:RDF>
  </metadata>
  <g
     inkscape:label="Ebene 1"
     inkscape:groupmode="layer"
     id="layer1">
    <ellipse
       style="opacity:1;fill:#000000;fill-opacity:1;stroke:none;stroke-width:0.96499997;stroke-miterlimit:4;stroke-dasharray:none;stroke-dashoffset:0;stroke-opacity:1"
       id="path4518"
       cx="97.139877"
       cy="95.160713"
       rx="53.294643"
       ry="52.160713"
       inkscape:export-filename="/home/tux/projekte/android/face-detection/openCVSamplefacedetection/src/main/res/drawable/icon.png"
       inkscape:export-xdpi="41"
       inkscape:export-ydpi="41" />
    <ellipse
       style="opacity:1;fill:#ffffff;fill-opacity:1;stroke:none;stroke-width:0.86122376;stroke-miterlimit:4;stroke-dasharray:none;stroke-dashoffset:0;stroke-opacity:1"
       id="path4518-3"
       cx="97.139908"
       cy="94.782738"
       rx="47.625"
       ry="46.49107"
       inkscape:export-filename="/home/tux/projekte/android/face-detection/openCVSamplefacedetection/src/main/res/drawable/icon.png"
       inkscape:export-xdpi="41"
       inkscape:export-ydpi="41" />
    <path
       style="fill:#000000;stroke:#000000;stroke-width:3.965;stroke-linecap:butt;stroke-linejoin:miter;stroke-opacity:1;stroke-miterlimit:4;stroke-dasharray:none"
       d="m 86.862596,78.640796 c 1.158166,0 2.316335,0 3.474503,0 0.178181,0 0.356359,0 0.53454,0 0.08909,0 0.267269,-0.08909 0.267269,0 0,0.08909 -0.187587,-0.03984 -0.267269,0 -0.112691,0.05634 -0.15458,0.210923 -0.267271,0.267269 -0.07968,0.03984 -0.187584,-0.03984 -0.267269,0 -0.225383,0.112691 -0.295487,0.454853 -0.534538,0.534538 -1.216689,0 -0.01529,-0.125992 -0.801809,0.267271 -0.07968,0.03984 -0.227428,-0.07968 -0.267269,0 -0.07968,0.159367 0.07968,0.375169 0,0.534538 -0.07968,0.159369 -0.408548,-0.125992 -0.53454,0 -0.063,0.063 0.07968,0.227428 0,0.267269 -0.159369,0.07968 -0.375171,-0.07968 -0.53454,0 -0.07968,0.03984 -0.06299,0.204274 0,0.267271 0.063,0.063 0.182753,-0.02817 0.267271,0 0.188987,0.063 0.35636,0.178179 0.534538,0.267269 0.267271,0 0.539729,-0.05242 0.801809,0 0.195342,0.03907 0.339196,0.228201 0.53454,0.267269 0.627806,0.125561 1.777617,-0.125561 2.405425,0 1.535557,0.307112 -0.07671,0.267269 0.80181,0.267269 0.06482,0 0.793212,-0.0086 0.801806,0 0.063,0.063 0,0.178181 0,0.267271 0,0.08909 0.063,0.204272 0,0.267269 -0.06299,0.063 -0.187584,-0.03984 -0.267269,0 -0.245636,0.122817 -0.866277,1.001477 -1.069078,1.069078 -0.169037,0.05635 -0.365503,-0.05634 -0.534537,0 -0.119529,0.03984 -0.147744,0.227428 -0.267272,0.267269 -0.169034,0.05635 -0.375169,-0.07968 -0.534538,0 -0.07968,0.03984 0.063,0.204274 0,0.267269 -0.125992,0.125992 -0.375171,-0.07968 -0.53454,0 -0.22538,0.112691 -0.309158,0.421849 -0.534538,0.53454 -0.07968,0.03984 -0.187587,-0.03984 -0.267269,0 -0.112691,0.05635 -0.15458,0.210923 -0.267271,0.267269 -0.07968,0.03984 -0.187584,-0.03984 -0.267269,0 -0.112691,0.05635 -0.154577,0.210926 -0.267269,0.267269 -0.07968,0.03984 -0.204274,-0.063 -0.267269,0 -0.063,0.063 0.06299,0.204274 0,0.267271 -0.063,0.063 -0.178181,0 -0.267271,0 -0.623628,0 -1.247257,0 -1.870887,0 -0.626793,0 0.125994,0.063 -0.534538,-0.267271 -0.07968,-0.03984 -0.356359,0 -0.267269,0 0.178178,0 0.359818,-0.03494 0.534538,0 0.276257,0.05525 0.53454,0.178181 0.801809,0.267271 0.434642,0.144881 0.943086,0.272365 1.336347,0.534538 0.104833,0.06989 0.15458,0.210926 0.267271,0.267269 0.09665,0.04833 1.150451,0 1.336347,0 0.08909,0 0.204274,0.063 0.267269,0 0.063,-0.063 -0.063,-0.204272 0,-0.267269 0.063,-0.063 0.204274,0.063 0.267269,0 0.063,-0.063 -0.063,-0.204274 0,-0.267269 0.189304,-0.189304 0.57178,0.227833 0.801809,0.534538 0.268626,0.358169 0.380534,0.951338 0.534541,1.33635 0.369675,0.924194 0.139411,0.185883 0.801806,1.069078 0.567851,0.757131 0.0697,0.278778 0.267272,1.069078 0.04832,0.193262 0.204271,0.345551 0.267268,0.534537 0.05635,0.169037 -0.07968,0.375172 0,0.534541 0.05635,0.112691 0.210924,0.154577 0.267269,0.267269 0.03984,0.07968 0.08909,0.267268 0,0.267268 -0.08909,0 -0.06299,-0.204271 0,-0.267268 0.140864,-0.140865 0.378981,-0.142825 0.534541,-0.267269 1.058134,-0.846511 0.567335,-0.642356 1.336347,-1.603619 0.157413,-0.196765 0.404894,-0.318463 0.534537,-0.534537 0.14495,-0.241581 0.16264,-0.540232 0.267272,-0.80181 0.07399,-0.184962 0.2282,-0.339195 0.267269,-0.53454 0.05242,-0.262078 -0.06482,-0.542518 0,-0.801807 0.03056,-0.122232 0.227427,-0.147743 0.267268,-0.267271 0.05105,-0.153143 0,-1.085429 0,-1.336347 0,-0.08909 0.063,-0.204274 0,-0.267269 -0.02275,-0.02275 -0.669147,-0.04422 -0.801809,0 -0.188986,0.063 -0.345551,0.204274 -0.534537,0.267269 -0.259004,0.08633 -1.077347,-0.08633 -1.336347,0 -0.18899,0.063 -0.341278,0.218953 -0.534541,0.267269 -0.17286,0.04322 -0.356359,0 -0.534537,0 -0.534541,0 -1.069078,0 -1.603619,0 -0.08909,0 -0.178178,0 -0.267269,0 -0.08909,0 -0.204274,0.063 -0.267269,0 -0.063,-0.063 -0.063,-0.204272 0,-0.267269 0.063,-0.063 0.182751,0.02817 0.267269,0 0.377976,-0.125992 0.678392,-0.456401 1.069078,-0.534538 0.262078,-0.05242 0.539729,0.05241 0.80181,0 0.396017,-0.07921 1.185134,-0.69719 1.603615,-0.801809 0.92574,-0.231436 0.16052,0.338437 1.069078,-0.267269 0.209664,-0.139776 0.309158,-0.421849 0.534541,-0.53454 0.251984,-0.125992 0.576426,-0.09823 0.801806,-0.267269 0.159369,-0.119528 0.126408,-0.393676 0.267272,-0.53454 0.140861,-0.140862 0.375168,-0.147744 0.534537,-0.267269 0.01024,-0.0077 1.050372,-1.01296 1.069079,-1.069078 0.08452,-0.253553 0,-0.534538 0,-0.801809 0,-0.120367 0.04067,-0.720469 0,-0.801807 -0.05635,-0.112691 -0.210924,-0.15458 -0.267269,-0.267271 -0.03984,-0.07968 0.03984,-0.187585 0,-0.267269 -0.05635,-0.112692 -0.178181,-0.178179 -0.267269,-0.267269 -0.08909,-0.08909 -0.15458,-0.210926 -0.267272,-0.267269 -0.07968,-0.03984 -0.178178,0 -0.267269,0 -0.08909,-0.08909 -0.154577,-0.210926 -0.267268,-0.267271 -0.07968,-0.03984 -0.204275,0.063 -0.267269,0 -0.063,-0.063 0.06299,-0.204272 0,-0.267269 -0.063,-0.063 -0.178181,0 -0.267272,0 -0.08909,0 -0.178178,0 -0.267269,0 -0.226282,0 -0.92539,-0.04789 -1.069078,0 -0.119525,0.03984 -0.162438,0.197382 -0.267268,0.267269 -0.331508,0.221006 -0.712719,0.356359 -1.069079,0.53454 -0.178181,0.08909 -0.345551,0.204274 -0.53454,0.267269 -0.08452,0.02817 -0.204271,-0.063 -0.267269,0 -0.06299,0.063 0.03984,0.187584 0,0.267269 -0.160361,0.320725 -0.641448,0.481086 -0.801809,0.801809 -0.03984,0.07968 0.063,0.204274 0,0.267269 -0.118785,0.118787 -0.504841,-0.207875 -0.267269,0.267271 0.286777,0.573551 0.291873,0.0123 0.801809,0.267269 0.22538,0.112691 0.35636,0.356359 0.534538,0.534538 0.178181,0.178181 0.38335,0.332951 0.53454,0.53454 0.119526,0.159369 0.147744,0.375169 0.267269,0.534538 0.151191,0.201588 0.38335,0.332951 0.534541,0.53454 0.119525,0.159369 0.178178,0.356359 0.267269,0.534538 0.626795,1.25359 -0.125992,-0.314979 0.534537,1.336349 0.07399,0.184963 0.204274,0.345552 0.267272,0.534538 0.05635,0.169037 -0.07968,0.375171 0,0.53454 0.20379,0.40758 0.702352,0.267269 1.069078,0.267269 0.08909,0 0.178178,0 0.267269,0 0.08909,0 0.267268,-0.08909 0.267268,0 0,0.08909 -0.356359,0 -0.267268,0 0.178178,0 0.375171,-0.07968 0.534537,0 0.159369,0.07968 -0.125992,0.408546 0,0.534538 0.063,0.063 0.204275,-0.063 0.267272,0 0.06299,0.063 0,0.178181 0,0.267271 0,0.184555 0.04063,0.987817 0,1.069079 -0.05635,0.112688 -0.210926,0.154577 -0.267272,0.267268 -0.03984,0.07968 0.063,0.204275 0,0.267269 -0.06299,0.063 -0.187584,-0.03984 -0.267269,0 -0.22538,0.112692 -0.309157,0.421849 -0.534537,0.534541 -0.07968,0.03984 -0.187587,-0.03984 -0.267272,0 -0.112688,0.05634 -0.14774,0.227427 -0.267269,0.267268 -0.169037,0.05635 -0.36168,-0.04321 -0.534537,0 -0.193265,0.04832 -0.339199,0.228201 -0.534541,0.267269 -0.262077,0.05242 -0.534537,0 -0.801809,0 -0.623628,0 -1.247256,0 -1.870884,0 -0.534541,0 -1.069078,0 -1.603619,0 -0.120367,0 -0.720468,0.04067 -0.801809,0 -0.112689,-0.05635 -0.154578,-0.210923 -0.267269,-0.267269 -0.07968,-0.03984 -0.178178,0 -0.267269,0 -0.08909,0 -0.178181,0 -0.267269,0 -0.53454,0 -1.069078,0 -1.603618,0 -0.08909,0 -0.178181,0 -0.267269,0 -0.08909,0 -0.204274,0.06299 -0.267271,0 -0.06299,-0.063 -0.06299,-0.204274 0,-0.267268 0.063,-0.063 0.187587,0.03984 0.267271,0 0.22538,-0.112692 0.324874,-0.394764 0.534538,-0.534541 0.165753,-0.1105 0.368787,-0.156765 0.53454,-0.267269 0.209664,-0.139776 0.295484,-0.454855 0.534538,-0.53454 0.169037,-0.05634 0.365503,0.05635 0.53454,0 0.834234,-0.278077 -0.08909,-0.178178 0.267269,-0.534538 0.063,-0.063 0.267269,-0.08909 0.267269,0 0,0.08909 -0.178178,0 -0.267269,0 -0.267269,0 -0.534538,0 -0.801809,0"
       id="path4554"
       inkscape:connector-curvature="0"
       inkscape:export-filename="/home/tux/projekte/android/face-detection/openCVSamplefacedetection/src/main/res/drawable/icon.png"
       inkscape:export-xdpi="41"
       inkscape:export-ydpi="41" />
    <g
       id="g4615"
       transform="matrix(0.98158339,-0.63351107,0.59196841,1.0040877,54.035899,7.0111237)"
       style="fill:#ff6600;stroke:#ff6600;stroke-opacity:1"
       inkscape:export-filename="/home/tux/projekte/android/face-detection/openCVSamplefacedetection/src/main/res/drawable/icon.png"
       inkscape:export-xdpi="41"
       inkscape:export-ydpi="41">
      <ellipse
         ry="1.8137989"
         rx="3.2232249"
         cy="100.48795"
         cx="-42.21806"
         id="path4556"
         style="opacity:1;fill:#ff6600;fill-opacity:1;stroke:#ff6600;stroke-width:1.48304963;stroke-miterlimit:4;stroke-dasharray:none;stroke-dashoffset:0;stroke-opacity:1" />
      <ellipse
         ry="2.0405238"
         rx="4.0290313"
         cy="100.45212"
         cx="-31.537964"
         id="path4556-6"
         style="opacity:1;fill:#ff6600;fill-opacity:1;stroke:#ff6600;stroke-width:1.75868058;stroke-miterlimit:4;stroke-dasharray:none;stroke-dashoffset:0;stroke-opacity:1" />
      <ellipse
         ry="1.6437552"
         rx="4.0290313"
         cy="100.39544"
         cx="-37.116623"
         id="path4556-7"
         style="opacity:1;fill:#ff6600;fill-opacity:1;stroke:#ff6600;stroke-width:1.57846415;stroke-miterlimit:4;stroke-dasharray:none;stroke-dashoffset:0;stroke-opacity:1" />
      <path
         inkscape:connector-curvature="0"
         id="path4579"
         d="m -38.003122,94.819767 0.495931,4.307876 z m -4.586818,0.340176 3.595196,3.854381 z m 13.140841,0.226638 -6.57054,3.627743 z m 5.578679,0.566814 -5.826764,3.287567 z m -5.950687,5.214645 5.578679,1.81398 z m -7.306167,0.35136 -0.49569,5.7591 z m -1.487072,0.15146 -3.593759,5.15305 z m 2.974145,0 6.567904,4.84992 z"
         style="fill:#ff6600;stroke:#ff6600;stroke-width:1.40383971;stroke-linecap:butt;stroke-linejoin:miter;stroke-miterlimit:4;stroke-dasharray:none;stroke-opacity:1" />
    </g>
    <g
       id="g4615-6"
       transform="matrix(0.78512625,-0.86511212,0.83077373,0.8175779,76.306591,-22.662945)"
       style="fill:#ff6600;stroke:#ff6600;stroke-opacity:1"
       inkscape:export-filename="/home/tux/projekte/android/face-detection/openCVSamplefacedetection/src/main/res/drawable/icon.png"
       inkscape:export-xdpi="41"
       inkscape:export-ydpi="41">
      <ellipse
         ry="1.8137989"
         rx="3.2232249"
         cy="100.48795"
         cx="-42.21806"
         id="path4556-2"
         style="opacity:1;fill:#ff6600;fill-opacity:1;stroke:#ff6600;stroke-width:1.48304963;stroke-miterlimit:4;stroke-dasharray:none;stroke-dashoffset:0;stroke-opacity:1" />
      <ellipse
         ry="2.0405238"
         rx="4.0290313"
         cy="100.45212"
         cx="-31.537964"
         id="path4556-6-9"
         style="opacity:1;fill:#ff6600;fill-opacity:1;stroke:#ff6600;stroke-width:1.75868058;stroke-miterlimit:4;stroke-dasharray:none;stroke-dashoffset:0;stroke-opacity:1" />
      <ellipse
         ry="1.6437552"
         rx="4.0290313"
         cy="100.39544"
         cx="-37.116623"
         id="path4556-7-1"
         style="opacity:1;fill:#ff6600;fill-opacity:1;stroke:#ff6600;stroke-width:1.57846415;stroke-miterlimit:4;stroke-dasharray:none;stroke-dashoffset:0;stroke-opacity:1" />
      <path
         inkscape:connector-curvature="0"
         id="path4579-2"
         d="m -38.003122,94.819767 0.495931,4.307876 z m -4.586818,0.340176 3.595196,3.854381 z m 13.140841,0.226638 -6.57054,3.627743 z m 5.578679,0.566814 -5.826764,3.287567 z m -5.950687,5.214645 5.578679,1.81398 z m -7.306167,0.35136 -0.49569,5.7591 z m -1.487072,0.15146 -3.593759,5.15305 z m 2.974145,0 6.567904,4.84992 z"
         style="fill:#ff6600;stroke:#ff6600;stroke-width:1.40383971;stroke-linecap:butt;stroke-linejoin:miter;stroke-miterlimit:4;stroke-dasharray:none;stroke-opacity:1" />
    </g>
    <g
       id="g4615-6-7"
       transform="matrix(0.28909872,-1.1319294,1.1167657,0.33384575,11.71698,-11.716585)"
       style="fill:#ff6600;stroke:#ff6600;stroke-opacity:1"
       inkscape:export-filename="/home/tux/projekte/android/face-detection/openCVSamplefacedetection/src/main/res/drawable/icon.png"
       inkscape:export-xdpi="41"
       inkscape:export-ydpi="41">
      <ellipse
         ry="1.8137989"
         rx="3.2232249"
         cy="100.48795"
         cx="-42.21806"
         id="path4556-2-0"
         style="opacity:1;fill:#ff6600;fill-opacity:1;stroke:#ff6600;stroke-width:1.48304963;stroke-miterlimit:4;stroke-dasharray:none;stroke-dashoffset:0;stroke-opacity:1" />
      <ellipse
         ry="2.0405238"
         rx="4.0290313"
         cy="100.45212"
         cx="-31.537964"
         id="path4556-6-9-9"
         style="opacity:1;fill:#ff6600;fill-opacity:1;stroke:#ff6600;stroke-width:1.75868058;stroke-miterlimit:4;stroke-dasharray:none;stroke-dashoffset:0;stroke-opacity:1" />
      <ellipse
         ry="1.6437552"
         rx="4.0290313"
         cy="100.39544"
         cx="-37.116623"
         id="path4556-7-1-3"
         style="opacity:1;fill:#ff6600;fill-opacity:1;stroke:#ff6600;stroke-width:1.57846415;stroke-miterlimit:4;stroke-dasharray:none;stroke-dashoffset:0;stroke-opacity:1" />
      <path
         inkscape:connector-curvature="0"
         id="path4579-2-6"
         d="m -38.003122,94.819767 0.495931,4.307876 z m -4.586818,0.340176 3.595196,3.854381 z m 13.140841,0.226638 -6.57054,3.627743 z m 5.578679,0.566814 -5.826764,3.287567 z m -5.950687,5.214645 5.578679,1.81398 z m -7.306167,0.35136 -0.49569,5.7591 z m -1.487072,0.15146 -3.593759,5.15305 z m 2.974145,0 6.567904,4.84992 z"
         style="fill:#ff6600;stroke:#ff6600;stroke-width:1.40383971;stroke-linecap:butt;stroke-linejoin:miter;stroke-miterlimit:4;stroke-dasharray:none;stroke-opacity:1" />
    </g>
    <g
       id="g4615-6-7-0"
       transform="matrix(-0.33173479,-1.120176,1.1300825,-0.28553852,-21.833991,95.740862)"
       style="fill:#ff6600;stroke:#ff6600;stroke-opacity:1"
       inkscape:export-filename="/home/tux/projekte/android/face-detection/openCVSamplefacedetection/src/main/res/drawable/icon.png"
       inkscape:export-xdpi="41"
       inkscape:export-ydpi="41">
      <ellipse
         ry="1.8137989"
         rx="3.2232249"
         cy="100.48795"
         cx="-42.21806"
         id="path4556-2-0-6"
         style="opacity:1;fill:#ff6600;fill-opacity:1;stroke:#ff6600;stroke-width:1.48304963;stroke-miterlimit:4;stroke-dasharray:none;stroke-dashoffset:0;stroke-opacity:1" />
      <ellipse
         ry="2.0405238"
         rx="4.0290313"
         cy="100.45212"
         cx="-31.537964"
         id="path4556-6-9-9-2"
         style="opacity:1;fill:#ff6600;fill-opacity:1;stroke:#ff6600;stroke-width:1.75868058;stroke-miterlimit:4;stroke-dasharray:none;stroke-dashoffset:0;stroke-opacity:1" />
      <ellipse
         ry="1.6437552"
         rx="4.0290313"
         cy="100.39544"
         cx="-37.116623"
         id="path4556-7-1-3-6"
         style="opacity:1;fill:#ff6600;fill-opacity:1;stroke:#ff6600;stroke-width:1.57846415;stroke-miterlimit:4;stroke-dasharray:none;stroke-dashoffset:0;stroke-opacity:1" />
      <path
         inkscape:connector-curvature="0"
         id="path4579-2-6-1"
         d="m -38.003122,94.819767 0.495931,4.307876 z m -4.586818,0.340176 3.595196,3.854381 z m 13.140841,0.226638 -6.57054,3.627743 z m 5.578679,0.566814 -5.826764,3.287567 z m -5.950687,5.214645 5.578679,1.81398 z m -7.306167,0.35136 -0.49569,5.7591 z m -1.487072,0.15146 -3.593759,5.15305 z m 2.974145,0 6.567904,4.84992 z"
         style="fill:#ff6600;stroke:#ff6600;stroke-width:1.40383971;stroke-linecap:butt;stroke-linejoin:miter;stroke-miterlimit:4;stroke-dasharray:none;stroke-opacity:1" />
    </g>
    <g
       id="g4615-6-7-0-8"
       transform="matrix(-0.33173479,-1.120176,1.1300825,-0.28553852,-65.245338,91.654009)"
       style="fill:#ff6600;stroke:#ff6600;stroke-opacity:1"
       inkscape:export-filename="/home/tux/projekte/android/face-detection/openCVSamplefacedetection/src/main/res/drawable/icon.png"
       inkscape:export-xdpi="41"
       inkscape:export-ydpi="41">
      <ellipse
         ry="1.8137989"
         rx="3.2232249"
         cy="100.48795"
         cx="-42.21806"
         id="path4556-2-0-6-7"
         style="opacity:1;fill:#ff6600;fill-opacity:1;stroke:#ff6600;stroke-width:1.48304963;stroke-miterlimit:4;stroke-dasharray:none;stroke-dashoffset:0;stroke-opacity:1" />
      <ellipse
         ry="2.0405238"
         rx="4.0290313"
         cy="100.45212"
         cx="-31.537964"
         id="path4556-6-9-9-2-9"
         style="opacity:1;fill:#ff6600;fill-opacity:1;stroke:#ff6600;stroke-width:1.75868058;stroke-miterlimit:4;stroke-dasharray:none;stroke-dashoffset:0;stroke-opacity:1" />
      <ellipse
         ry="1.6437552"
         rx="4.0290313"
         cy="100.39544"
         cx="-37.116623"
         id="path4556-7-1-3-6-2"
         style="opacity:1;fill:#ff6600;fill-opacity:1;stroke:#ff6600;stroke-width:1.57846415;stroke-miterlimit:4;stroke-dasharray:none;stroke-dashoffset:0;stroke-opacity:1" />
      <path
         inkscape:connector-curvature="0"
         id="path4579-2-6-1-0"
         d="m -38.003122,94.819767 0.495931,4.307876 z m -4.586818,0.340176 3.595196,3.854381 z m 13.140841,0.226638 -6.57054,3.627743 z m 5.578679,0.566814 -5.826764,3.287567 z m -5.950687,5.214645 5.578679,1.81398 z m -7.306167,0.35136 -0.49569,5.7591 z m -1.487072,0.15146 -3.593759,5.15305 z m 2.974145,0 6.567904,4.84992 z"
         style="fill:#ff6600;stroke:#ff6600;stroke-width:1.40383971;stroke-linecap:butt;stroke-linejoin:miter;stroke-miterlimit:4;stroke-dasharray:none;stroke-opacity:1" />
    </g>
    <g
       id="g4615-6-7-0-8-2"
       transform="matrix(1.1292818,-0.29927375,0.25281086,1.1378512,81.549846,-57.349109)"
       style="fill:#ff6600;stroke:#ff6600;stroke-opacity:1"
       inkscape:export-filename="/home/tux/projekte/android/face-detection/openCVSamplefacedetection/src/main/res/drawable/icon.png"
       inkscape:export-xdpi="41"
       inkscape:export-ydpi="41">
      <ellipse
         ry="1.8137989"
         rx="3.2232249"
         cy="100.48795"
         cx="-42.21806"
         id="path4556-2-0-6-7-3"
         style="opacity:1;fill:#ff6600;fill-opacity:1;stroke:#ff6600;stroke-width:1.48304963;stroke-miterlimit:4;stroke-dasharray:none;stroke-dashoffset:0;stroke-opacity:1" />
      <ellipse
         ry="2.0405238"
         rx="4.0290313"
         cy="100.45212"
         cx="-31.537964"
         id="path4556-6-9-9-2-9-7"
         style="opacity:1;fill:#ff6600;fill-opacity:1;stroke:#ff6600;stroke-width:1.75868058;stroke-miterlimit:4;stroke-dasharray:none;stroke-dashoffset:0;stroke-opacity:1" />
      <ellipse
         ry="1.6437552"
         rx="4.0290313"
         cy="100.39544"
         cx="-37.116623"
         id="path4556-7-1-3-6-2-5"
         style="opacity:1;fill:#ff6600;fill-opacity:1;stroke:#ff6600;stroke-width:1.57846415;stroke-miterlimit:4;stroke-dasharray:none;stroke-dashoffset:0;stroke-opacity:1" />
      <path
         inkscape:connector-curvature="0"
         id="path4579-2-6-1-0-9"
         d="m -38.003122,94.819767 0.495931,4.307876 z m -4.586818,0.340176 3.595196,3.854381 z m 13.140841,0.226638 -6.57054,3.627743 z m 5.578679,0.566814 -5.826764,3.287567 z m -5.950687,5.214645 5.578679,1.81398 z m -7.306167,0.35136 -0.49569,5.7591 z m -1.487072,0.15146 -3.593759,5.15305 z m 2.974145,0 6.567904,4.84992 z"
         style="fill:#ff6600;stroke:#ff6600;stroke-width:1.40383971;stroke-linecap:butt;stroke-linejoin:miter;stroke-miterlimit:4;stroke-dasharray:none;stroke-opacity:1" />
    </g>
    <g
       id="g4615-6-7-0-2"
       transform="matrix(1.1676458,-0.61550212,0.52277435,1.2781905,102.87603,-15.292335)"
       style="fill:#ff6600;stroke:#ff6600;stroke-opacity:1"
       inkscape:export-filename="/home/tux/projekte/android/face-detection/openCVSamplefacedetection/src/main/res/drawable/icon.png"
       inkscape:export-xdpi="41"
       inkscape:export-ydpi="41">
      <ellipse
         ry="1.8137989"
         rx="3.2232249"
         cy="100.48795"
         cx="-42.21806"
         id="path4556-2-0-6-2"
         style="opacity:1;fill:#ff6600;fill-opacity:1;stroke:#ff6600;stroke-width:1.48304963;stroke-miterlimit:4;stroke-dasharray:none;stroke-dashoffset:0;stroke-opacity:1" />
      <ellipse
         ry="2.0405238"
         rx="4.0290313"
         cy="100.45212"
         cx="-31.537964"
         id="path4556-6-9-9-2-8"
         style="opacity:1;fill:#ff6600;fill-opacity:1;stroke:#ff6600;stroke-width:1.75868058;stroke-miterlimit:4;stroke-dasharray:none;stroke-dashoffset:0;stroke-opacity:1" />
      <ellipse
         ry="1.6437552"
         rx="4.0290313"
         cy="100.39544"
         cx="-37.116623"
         id="path4556-7-1-3-6-9"
         style="opacity:1;fill:#ff6600;fill-opacity:1;stroke:#ff6600;stroke-width:1.57846415;stroke-miterlimit:4;stroke-dasharray:none;stroke-dashoffset:0;stroke-opacity:1" />
      <path
         inkscape:connector-curvature="0"
         id="path4579-2-6-1-7"
         d="m -38.003122,94.819767 0.495931,4.307876 z m -4.586818,0.340176 3.595196,3.854381 z m 13.140841,0.226638 -6.57054,3.627743 z m 5.578679,0.566814 -5.826764,3.287567 z m -5.950687,5.214645 5.578679,1.81398 z m -7.306167,0.35136 -0.49569,5.7591 z m -1.487072,0.15146 -3.593759,5.15305 z m 2.974145,0 6.567904,4.84992 z"
         style="fill:#ff6600;stroke:#ff6600;stroke-width:1.40383971;stroke-linecap:butt;stroke-linejoin:miter;stroke-miterlimit:4;stroke-dasharray:none;stroke-opacity:1" />
    </g>
  </g>
</svg>
